%YAML 1.1
%TAG !u! tag:unity3d.com,2011:
--- !u!1001 &100100000
Prefab:
  m_ObjectHideFlags: 1
  serializedVersion: 2
  m_Modification:
    m_TransformParent: {fileID: 0}
    m_Modifications: []
    m_RemovedComponents: []
  m_SourcePrefab: {fileID: 0}
  m_RootGameObject: {fileID: 1974742372993604}
  m_IsPrefabAsset: 1
--- !u!1 &1974742372993604
GameObject:
  m_ObjectHideFlags: 0
  m_CorrespondingSourceObject: {fileID: 0}
  m_PrefabInternal: {fileID: 100100000}
  serializedVersion: 6
  m_Component:
  - component: {fileID: 4291085745710422}
  - component: {fileID: 114655874180517336}
  m_Layer: 31
  m_Name: Genetic with Physics, Volumetric Scoring
  m_TagString: Untagged
  m_Icon: {fileID: 0}
  m_NavMeshLayer: 0
  m_StaticEditorFlags: 0
  m_IsActive: 0
--- !u!4 &4291085745710422
Transform:
  m_ObjectHideFlags: 1
  m_CorrespondingSourceObject: {fileID: 0}
  m_PrefabInternal: {fileID: 100100000}
  m_GameObject: {fileID: 1974742372993604}
  m_LocalRotation: {x: -0, y: -0, z: -0, w: 1}
  m_LocalPosition: {x: 0, y: 0, z: 0}
  m_LocalScale: {x: 1, y: 1, z: 1}
  m_Children: []
  m_Father: {fileID: 0}
  m_RootOrder: 0
  m_LocalEulerAnglesHint: {x: 0, y: 0, z: 0}
--- !u!114 &114655874180517336
MonoBehaviour:
  m_ObjectHideFlags: 1
  m_CorrespondingSourceObject: {fileID: 0}
  m_PrefabInternal: {fileID: 100100000}
  m_GameObject: {fileID: 1974742372993604}
  m_Enabled: 1
  m_EditorHideFlags: 0
  m_Script: {fileID: 11500000, guid: e2085e7fc2ca1aa47b9ce2a00e1dc440, type: 3}
  m_Name: 
  m_EditorClassIdentifier: 
  populationSize: 10
  fillsPerSet: 50
  fillPrefabs:
  - {fileID: 114415507872253710, guid: d72762342a130da4fb35762c80dc4e3f, type: 2}
  fillSetPrefab: {fileID: 114564613467671346, guid: 357f53e59b9703d42a02724ce062a741,
    type: 2}
  pusherPrefab: {fileID: 114080565071181510, guid: 9f1273e7898027649a5852169e59a735,
    type: 2}
  targetContainer: {fileID: 0}
  containerLayerMask:
    serializedVersion: 2
    m_Bits: 2147483648
  fillLayerMask:
    serializedVersion: 2
    m_Bits: 1073741824
  generationsPerTap: 10000
  runToGeneration: -1
  startMutationMultiplier: 1
  minMutationMultiplier: 0.05
  positionMutationRate: 0.05
  rotationMutationRate: 0.1
  scaleMutationRate: 0.1
  totallyRandomMutationRate: 0.001
  shouldConstrain: 1
  constrainMargins: {x: 1, y: 1, z: 1}
  shouldBounceOrphans: 0
  bounceEveryNGenerations: 10
  orphanCheckSampleCount: 256
  orphanBounceMax: 0.1
  useBestForParent0: 1
  useBestForParent1: 1
  swapGeneStripsWhenBreeding: 1
  scoringType: 1
  sampleCount: 1024
  raycastGoodEnoughRadius: 0.1
  raycastShrinkingGoodEnoughRadius: 1
  raycastOriginShape: 2
  volumetricUsePushers: 1
  volumetricPushersUpdateEveryNGenerations: 1
  volumetricMultiplyPusherRadiusByMutationMultiplier: 1
  volumetricPusherRadius: 0.5
  volumetricPusherMass: 1
  volumetricPusherDrag: 10
  volumetricPusherAngularDrag: 10
  volumetricPusherIsKinematic: 1
  mutationMultiplier: 1
  generations: 0
  bestFillSet: {fileID: 0}
  bestFillSetScore: 0
  bestScorePercentage: 0
  cumulativeScore: 0
  cumulativeFitness: 0
  bounceTriggered: 0
  mutationIncrementTriggered: 0
  mutationDecrementTriggered: 0
  mutationDoubleTriggered: 0
  mutationHalveTriggered: 0
